<?xml version="1.0" encoding="utf-8"?>
<!-- Generator: Adobe Illustrator 22.0.0, SVG Export Plug-In . SVG Version: 6.00 Build 0)  -->
<svg xmlns="http://www.w3.org/2000/svg" xmlns:xlink="http://www.w3.org/1999/xlink" version="1.1" id="Layer_2" x="0px" y="0px" viewBox="0 0 256 256" style="enable-background:new 0 0 256 256;" xml:space="preserve" width="512" height="512">
<style type="text/css">
	.st0{fill:#87796F;}
	.st1{fill:#3A312A;}
	.st2{fill:#D7E057;}
	.st3{fill:#F16C7A;}
	.st4{fill:#8AC6DD;}
	.st5{fill:#FCE8CB;}
	.st6{fill:#695B51;}
	.st7{fill:#D34E5C;}
	.st8{fill:#6CA8BF;}
	.st9{fill:#B9C239;}
	.st10{fill:#DECAAD;}
	.st11{fill:#B9BC39;}
	.st12{fill-rule:evenodd;clip-rule:evenodd;fill:#87796F;}
	.st13{fill-rule:evenodd;clip-rule:evenodd;fill:#FCE8CB;}
	.st14{fill-rule:evenodd;clip-rule:evenodd;fill:#F16C7A;}
	.st15{fill:#F5978A;}
</style>
<g>
	<g>
		<g>
			<rect x="116.226" y="195.677" class="st0" width="23.548" height="26.323"/>
		</g>
	</g>
	<g>
		<g>
			<path class="st1" d="M139.774,194.177h-23.549c-0.828,0-1.5,0.672-1.5,1.5V222c0,0.828,0.672,1.5,1.5,1.5h23.549     c0.828,0,1.5-0.672,1.5-1.5v-26.323C141.274,194.849,140.603,194.177,139.774,194.177z M138.274,220.5h-20.549v-23.323h20.549     V220.5z"/>
		</g>
	</g>
	<g>
		<g>
			<path class="st0" d="M145.555,222h-35.109c-9.632,0-17.44,7.808-17.44,17.44h69.99C162.995,229.808,155.187,222,145.555,222z"/>
		</g>
	</g>
	<g>
		<g>
			<path class="st1" d="M145.555,220.5h-35.109c-10.443,0-18.94,8.497-18.94,18.94c0,0.828,0.672,1.5,1.5,1.5h69.99     c0.828,0,1.5-0.672,1.5-1.5C164.495,228.997,155.998,220.5,145.555,220.5z M94.575,237.94c0.758-8.089,7.586-14.44,15.87-14.44     h35.109c8.284,0,15.112,6.352,15.87,14.44H94.575z"/>
		</g>
	</g>
	<g>
		<g>
			<path class="st0" d="M224.721,16.56H31.279C21.184,16.56,13,24.744,13,34.839v142.559c0,10.095,8.184,18.279,18.279,18.279     h193.441c10.095,0,18.279-8.184,18.279-18.279V34.839C243,24.744,234.816,16.56,224.721,16.56z"/>
		</g>
	</g>
	<g>
		<g>
			<path class="st1" d="M224.721,15.06h-46.585c-0.828,0-1.5,0.672-1.5,1.5s0.672,1.5,1.5,1.5h46.585     c9.252,0,16.779,7.527,16.779,16.779v142.559c0,9.252-7.527,16.779-16.779,16.779H31.279c-9.252,0-16.779-7.527-16.779-16.779     V34.839c0-9.252,7.527-16.779,16.779-16.779h132.584c0.828,0,1.5-0.672,1.5-1.5s-0.672-1.5-1.5-1.5H31.279     c-10.906,0-19.779,8.873-19.779,19.779v142.559c0,10.906,8.873,19.779,19.779,19.779h193.441     c10.906,0,19.779-8.873,19.779-19.779V34.839C244.5,23.933,235.627,15.06,224.721,15.06z"/>
		</g>
	</g>
	<g>
		<g>
			<path class="st5" d="M216.55,30.083H39.45c-6.9,0-12.49,5.6-12.49,12.5v127.07c0,1.41,0.23,2.77,0.67,4.04     c1.67,4.92,6.33,8.46,11.82,8.46h177.1c6.9,0,12.49-5.6,12.49-12.5V42.583C229.04,35.683,223.45,30.083,216.55,30.083z"/>
		</g>
	</g>
	<g>
		<g>
			<path class="st1" d="M216.55,28.584H39.45c-7.714,0-13.99,6.28-13.99,14v33.479c0,0.828,0.672,1.5,1.5,1.5s1.5-0.672,1.5-1.5     V42.584c0-6.065,4.931-11,10.99-11h177.1c6.06,0,10.99,4.935,10.99,11v127.069c0,6.065-4.931,11-10.99,11H39.45     c-4.71,0-8.889-2.991-10.403-7.451c-0.39-1.123-0.587-2.317-0.587-3.549V90.938c0-0.828-0.672-1.5-1.5-1.5s-1.5,0.672-1.5,1.5     v78.716c0,1.567,0.253,3.092,0.749,4.522c1.925,5.669,7.246,9.478,13.241,9.478h177.1c7.714,0,13.99-6.28,13.99-14V42.584     C230.54,34.864,224.264,28.584,216.55,28.584z"/>
		</g>
	</g>
	<g>
		<g>
			<path class="st2" d="M200.234,104.59h-25.553c-3.69,0-6.682,2.991-6.682,6.682v25.553c0,3.69,2.991,6.682,6.682,6.682h25.553     c3.69,0,6.682-2.992,6.682-6.682v-25.553C206.916,107.581,203.925,104.59,200.234,104.59z"/>
		</g>
	</g>
	<g>
		<g>
			<path class="st1" d="M200.234,103.09h-25.553c-4.512,0-8.182,3.67-8.182,8.182v25.553c0,4.512,3.67,8.182,8.182,8.182h25.553     c4.512,0,8.182-3.67,8.182-8.182v-25.553C208.416,106.76,204.746,103.09,200.234,103.09z M205.416,136.824     c0,2.857-2.324,5.182-5.182,5.182h-25.553c-2.857,0-5.182-2.324-5.182-5.182v-25.553c0-2.857,2.324-5.182,5.182-5.182h25.553     c2.857,0,5.182,2.324,5.182,5.182V136.824z"/>
		</g>
	</g>
	<g>
		<g>
			<path class="st3" d="M200.234,80.048h-25.553c-3.69,0-6.682,2.991-6.682,6.682s2.991,6.682,6.682,6.682h25.553     c3.69,0,6.682-2.991,6.682-6.682S203.925,80.048,200.234,80.048z"/>
		</g>
	</g>
	<g>
		<g>
			<path class="st1" d="M200.234,78.548h-25.553c-4.512,0-8.182,3.67-8.182,8.182s3.67,8.182,8.182,8.182h25.553     c4.512,0,8.182-3.67,8.182-8.182S204.746,78.548,200.234,78.548z M200.234,91.911h-25.553c-2.857,0-5.182-2.324-5.182-5.182     s2.324-5.182,5.182-5.182h25.553c2.857,0,5.182,2.324,5.182,5.182S203.092,91.911,200.234,91.911z"/>
		</g>
	</g>
	<g>
		<g>
			<path class="st3" d="M200.234,56.048h-25.553c-3.69,0-6.682,2.991-6.682,6.682s2.991,6.682,6.682,6.682h25.553     c3.69,0,6.682-2.991,6.682-6.682S203.925,56.048,200.234,56.048z"/>
		</g>
	</g>
	<g>
		<g>
			<path class="st1" d="M200.234,54.548h-25.553c-4.512,0-8.182,3.67-8.182,8.182s3.67,8.182,8.182,8.182h25.553     c4.512,0,8.182-3.67,8.182-8.182S204.746,54.548,200.234,54.548z M200.234,67.911h-25.553c-2.857,0-5.182-2.324-5.182-5.182     s2.324-5.182,5.182-5.182h25.553c2.857,0,5.182,2.324,5.182,5.182S203.092,67.911,200.234,67.911z"/>
		</g>
	</g>
	<g>
		<g>
			<path class="st3" d="M117.694,91.343c-0.487-0.05-0.974-0.079-1.461-0.099c-0.686-0.04-1.372-0.06-2.068-0.06L77.227,56.422     l-8.429-7.932c-2.356-1.889-5.298-2.923-8.32-2.923h-11.49v87.663h105.168v-2.046C154.156,110.289,138.132,93.122,117.694,91.343     z"/>
		</g>
	</g>
	<g>
		<g>
			<path class="st1" d="M117.835,89.85c-0.515-0.053-1.028-0.084-1.515-0.103c-0.518-0.03-1.034-0.05-1.556-0.059L69.825,47.397     c-0.029-0.026-0.06-0.053-0.09-0.077c-2.616-2.098-5.904-3.253-9.259-3.253H48.987c-0.828,0-1.5,0.672-1.5,1.5v87.662     c0,0.828,0.672,1.5,1.5,1.5h105.168c0.828,0,1.5-0.672,1.5-1.5v-2.045C155.655,109.856,139.043,91.702,117.835,89.85z      M152.655,131.729H50.487V47.067h9.989c2.655,0,5.259,0.908,7.337,2.557l45.323,42.652c0.278,0.262,0.646,0.407,1.028,0.407     c0.667,0,1.323,0.02,2.007,0.06c0.457,0.019,0.913,0.045,1.37,0.092c0.007,0.001,0.015,0.002,0.022,0.002     c19.677,1.713,35.091,18.558,35.091,38.348V131.729z"/>
		</g>
	</g>
	<g>
		<g>
			<polygon class="st4" points="77.227,56.422 48.988,56.422 48.988,91.321 114.165,91.184    "/>
		</g>
	</g>
	<g>
		<g>
			<path class="st1" d="M115.193,90.091L78.255,55.329c-0.278-0.262-0.646-0.407-1.028-0.407H48.987c-0.828,0-1.5,0.672-1.5,1.5     v34.899c0,0.398,0.158,0.78,0.44,1.062c0.281,0.281,0.662,0.438,1.06,0.438h0.003l65.178-0.138     c0.614-0.001,1.166-0.377,1.392-0.948C115.786,91.164,115.641,90.513,115.193,90.091z M50.487,89.818V57.922h26.145l33.759,31.77     L50.487,89.818z"/>
		</g>
	</g>
	<g>
		<g>
			<path class="st0" d="M154.674,133.23H48.988v10.302h105.686c2.845,0,5.151-2.306,5.151-5.151     C159.825,135.536,157.519,133.23,154.674,133.23z"/>
		</g>
	</g>
	<g>
		<g>
			<path class="st1" d="M154.674,131.729H48.987c-0.828,0-1.5,0.672-1.5,1.5v10.302c0,0.828,0.672,1.5,1.5,1.5h105.687     c3.667,0,6.65-2.983,6.65-6.65C161.324,134.713,158.341,131.729,154.674,131.729z M154.674,142.031H50.487v-7.302h104.187     c2.013,0,3.65,1.638,3.65,3.651C158.324,140.394,156.687,142.031,154.674,142.031z"/>
		</g>
	</g>
	<g>
		<g>
			
				<ellipse transform="matrix(0.9951 -0.0985 0.0985 0.9951 -13.5739 12.5363)" class="st0" cx="120.126" cy="143.685" rx="27.422" ry="27.422"/>
		</g>
	</g>
	<g>
		<g>
			<path class="st1" d="M120.126,114.764c-15.947,0-28.922,12.975-28.922,28.922s12.975,28.921,28.922,28.921     s28.922-12.974,28.922-28.921S136.073,114.764,120.126,114.764z M120.126,169.606c-14.293,0-25.922-11.628-25.922-25.921     s11.629-25.922,25.922-25.922s25.922,11.629,25.922,25.922S134.419,169.606,120.126,169.606z"/>
		</g>
	</g>
	<g>
		<g>
			<path class="st5" d="M120.126,131.541c-6.707,0-12.145,5.437-12.145,12.144c0,6.707,5.437,12.145,12.145,12.145     c6.707,0,12.145-5.437,12.145-12.145C132.271,136.978,126.833,131.541,120.126,131.541z"/>
		</g>
	</g>
	<g>
		<g>
			<path class="st1" d="M120.126,130.041c-7.523,0-13.645,6.121-13.645,13.645s6.121,13.645,13.645,13.645     s13.645-6.121,13.645-13.645S127.649,130.041,120.126,130.041z M120.126,154.33c-5.869,0-10.645-4.775-10.645-10.645     s4.775-10.645,10.645-10.645s10.645,4.775,10.645,10.645S125.995,154.33,120.126,154.33z"/>
		</g>
	</g>
	<g>
		<g>
			<path class="st2" d="M145.145,97.855H134.21c-3.637,0-6.586,2.948-6.586,6.586c0,3.637,2.949,6.585,6.586,6.585h10.935     c3.637,0,6.585-2.948,6.585-6.585C151.73,100.804,148.782,97.855,145.145,97.855z"/>
		</g>
	</g>
	<g>
		<g>
			<path class="st1" d="M145.145,96.355H134.21c-4.458,0-8.085,3.627-8.085,8.086c0,4.458,3.627,8.085,8.085,8.085h10.935     c4.459,0,8.086-3.627,8.086-8.085C153.23,99.982,149.604,96.355,145.145,96.355z M145.145,109.526H134.21     c-2.804,0-5.085-2.281-5.085-5.085c0-2.805,2.281-5.086,5.085-5.086h10.935c2.805,0,5.086,2.281,5.086,5.086     C150.23,107.245,147.949,109.526,145.145,109.526z"/>
		</g>
	</g>
	<g>
		<g>
			<path class="st1" d="M132.973,41.603c-0.768-0.297-1.641,0.08-1.942,0.853l-18.682,47.876c-0.301,0.771,0.08,1.642,0.853,1.942     c0.179,0.069,0.363,0.103,0.545,0.103c0.6,0,1.166-0.362,1.397-0.955l18.682-47.876     C134.126,42.773,133.745,41.903,132.973,41.603z"/>
		</g>
	</g>
	<g>
		<g>
			<path class="st10" d="M216.54,31.58h-14.99c6.06,0,10.99,4.94,10.99,11v127.07c0,6.07-4.93,11-10.99,11h15     c6.06,0,10.99-4.93,10.99-11V42.58C227.54,36.53,222.59,31.58,216.54,31.58z"/>
		</g>
	</g>
	<g>
		<g>
			<rect x="129.2" y="197.18" class="st6" width="9.07" height="23.32"/>
		</g>
	</g>
	<g>
		<g>
			<path class="st6" d="M145.55,223.5h-9.07c8.29,0,15.12,6.35,15.87,14.44h9.07C160.67,229.85,153.84,223.5,145.55,223.5z"/>
		</g>
	</g>
</g>
</svg>
